"0","retail <- subset(retail, select=-c(Product.ID, Discount))"
"0","str(retail)"
"1","'data.frame':	"
"1","9994"
"1"," obs. of  "
"1","11"
"1"," variable"
"1","s"
"1",":"
"1","
"
"1"," "
"1","$ "
"1","Order.Date  "
"1",":"
"1"," "
"1","Date"
"1",", format: "
"1","""2016-11-08"" ""2016-11-08"""
"1"," ..."
"1","
"
"1"," "
"1","$ "
"1","Ship.Date   "
"1",":"
"1"," "
"1","Date"
"1",", format: "
"1","""2016-11-11"" ""2016-11-11"""
"1"," ..."
"1","
"
"1"," "
"1","$ "
"1","Ship.Mode   "
"1",":"
"1"," Factor w/ 4 levels ""First Class"",..: "
"1","3 3 3 4 4 4 4 4 4 4"
"1"," ..."
"1","
"
"1"," "
"1","$ "
"1","Customer.ID "
"1",":"
"1"," Factor w/ 793 levels ""AA-10315"",""AA-10375"",..: "
"1","144 144 240 706 706 89 89 89 89 89"
"1"," ..."
"1","
"
"1"," "
"1","$ "
"1","Segment     "
"1",":"
"1"," Factor w/ 3 levels ""Consumer"",""Corporate"",..: "
"1","1 1 2 1 1 1 1 1 1 1"
"1"," ..."
"1","
"
"1"," "
"1","$ "
"1","Category    "
"1",":"
"1"," Factor w/ 3 levels ""Furniture"",""Office Supplies"",..: "
"1","1 1 2 1 2 1 2 3 2 2"
"1"," ..."
"1","
"
"1"," "
"1","$ "
"1","Sub.Category"
"1",":"
"1"," Factor w/ 17 levels ""Accessories"",..: "
"1","5 6 11 17 15 10 3 14 4 2"
"1"," ..."
"1","
"
"1"," "
"1","$ "
"1","Product.Name"
"1",":"
"1"," Factor w/ 1850 levels ""\""While you Were Out\"" Message Book, One Form per Page"",..: "
"1","387 833 1440 368 574 570 1137 1099 535 295"
"1"," ..."
"1","
"
"1"," "
"1","$ "
"1","Sales       "
"1",":"
"1"," num  "
"1","262 731.9 14.6 957.6 22.4"
"1"," ..."
"1","
"
"1"," "
"1","$ "
"1","Quantity    "
"1",":"
"1"," int  "
"1","2 3 2 5 2 7 4 6 3 5"
"1"," ..."
"1","
"
"1"," "
"1","$ "
"1","Profit      "
"1",":"
"1"," num  "
"1","41.91 219.58 6.87 -383.03 2.52"
"1"," ..."
"1","
"
