"0","retail <- read.csv(""retail.csv"")"
"0","retail <- retail[,-c(1:2)]"
"0","retail$Order.Date <- as.Date(retail$Order.Date, ""%m/%d/%y"")"
"0","retail$Ship.Date <- as.Date(retail$Ship.Date, ""%m/%d/%y"")"
"0","head(retail)"
