"0","set_base_sty()"
"0","# 2x2 pictures on one plot, square plotting region"
"0","op <- par(mfrow=c(2,2), pty=""s"")"
"0","par(mfrow=c(1,3))"
"0","hist(retail$Sales, breaks = 100, xlim=c(0,2500), main="""")"
